Read LINX VisGeneExon File — linx_visgeneexon_read • gpgr
…
    Arguments

    x
Path to linx.vis_gene_exon.tsv file.

    Value

The input file as a tibble.

    Examples

x <- system.file("extdata/linx/tables/linx.vis_gene_exon.tsv.gz", package = "gpgr")
(l <- linx_visgeneexon_read(x))
#> # A tibble: 298 × 8
#>    ClusterId Gene   Transcript      Chrom AnnotationType ExonR…¹ ExonS…² ExonEnd
#>    <fct>     <chr>  <chr>           <chr> <chr>            <dbl>   <dbl>   <dbl>
#>  1 20        CDKN2A ENST00000498124 9     DRIVER               4  2.20e7  2.20e7
#>  2 20        CDKN2A ENST00000498124 9     DRIVER               3  2.20e7  2.20e7
#>  3 20        CDKN2A ENST00000498124 9     DRIVER               2  2.20e7  2.20e7
#>  4 20        CDKN2A ENST00000498124 9     DRIVER               1  2.20e7  2.20e7
#>  5 22        CDKN2A ENST00000498124 9     DRIVER               4  2.20e7  2.20e7
#>  6 22        CDKN2A ENST00000498124 9     DRIVER               3  2.20e7  2.20e7
#>  7 22        CDKN2A ENST00000498124 9     DRIVER               2  2.20e7  2.20e7
#>  8 22        CDKN2A ENST00000498124 9     DRIVER               1  2.20e7  2.20e7
#>  9 95        KMT2C  ENST00000262189 7     DISRUPTION          59  1.52e8  1.52e8
#> 10 95        KMT2C  ENST00000262189 7     DISRUPTION          58  1.52e8  1.52e8
#> # … with 288 more rows, and abbreviated variable names ¹​ExonRank, ²​ExonStart
…
