Read LINX Breakend File — linx_breakend_read • gpgr
…
    Arguments

    x
Path to linx.breakend.tsv file.

    Value

The input file as a tibble.

    Examples

x <- system.file("extdata/linx/tables/linx.breakend.tsv.gz", package = "gpgr")
(l <- linx_breakend_read(x))
#> # A tibble: 4,483 × 26
#>    id    svId  isStart gene    transcriptId canonical geneOrientation disruptive
#>    <chr> <chr> <chr>   <chr>   <chr>        <chr>     <chr>           <chr>     
#>  1 0     0     true    AL5133… ENST0000043… true      Upstream        false     
#>  2 1     0     true    WRAP73  ENST0000027… true      Upstream        false     
#>  3 2     0     true    TP73    ENST0000037… true      Downstream      true      
#>  4 3     0     true    AL1365… ENST0000044… true      Upstream        false     
#>  5 4     0     true    AL1365… ENST0000041… true      Upstream        false     
#>  6 5     0     true    RF02197 ENST0000061… true      Downstream      false     
#>  7 6     0     true    CCDC27  ENST0000029… true      Downstream      false     
#>  8 7     0     true    SMIM1   ENST0000044… true      Downstream      false     
#>  9 8     0     true    RN7SL5… ENST0000058… true      Downstream      false     
#> 10 9     0     true    AL3653… ENST0000060… true      Downstream      false     
#> # ℹ 4,473 more rows
#> # ℹ 18 more variables: reportedDisruption <chr>, undisruptedCopyNumber <dbl>,
#> #   regionType <chr>, codingType <chr>, biotype <chr>, exonicBasePhase <dbl>,
#> #   nextSpliceExonRank <dbl>, nextSpliceExonPhase <dbl>,
#> #   nextSpliceDistance <dbl>, totalExonCount <dbl>, type <chr>,
#> #   chromosome <chr>, orientation <chr>, strand <chr>, chrBand <chr>,
#> #   exonUp <dbl>, exonDown <dbl>, junctionCopyNumber <dbl>
…
