Read PURPLE CNV Gene File — purple_cnv_som_gene_read • gpgr
…
    Arguments

    x
Path to purple.cnv.gene.tsv file.

    Value

The input file as a tibble.

    Examples

x <- system.file("extdata/purple/purple.cnv.gene.tsv", package = "gpgr")
(p <- purple_cnv_som_gene_read(x))
#> # A tibble: 240 × 20
#>    chromosome  start    end gene        minCopyNumber maxCopyNumber unused
#>    <chr>       <int>  <int> <chr>               <dbl>         <dbl> <chr> 
#>  1 chr1        11869  14409 DDX11L1              1.02          1.02 0     
#>  2 chr1        14404  29570 WASH7P               1.02          1.02 0     
#>  3 chr1        17369  17436 MIR6859-1            1.02          1.02 0     
#>  4 chr1        29554  31097 MIR1302-2HG          1.02          1.02 0     
#>  5 chr1        30366  30503 MIR1302-2            1.02          1.02 0     
#>  6 chr1        34554  36081 FAM138A              1.02          1.02 0     
#>  7 chr1        69091  70008 OR4F5                1.02          1.02 0     
#>  8 chr1       185217 195411 FO538757.1           1.02          1.02 0     
#>  9 chr1       187891 187958 MIR6859-2            1.02          1.02 0     
#> 10 chr1       450740 451678 OR4F29               1.02          1.02 0     
#> # ℹ 230 more rows
#> # ℹ 13 more variables: somaticRegions <dbl>, germlineHomDeletionRegions <dbl>,
#> #   germlineHetToHomDeletionRegions <dbl>, transcriptId <chr>,
#> #   transcriptVersion <chr>, chromosomeBand <chr>, minRegions <dbl>,
#> #   minRegionStart <int>, minRegionEnd <int>, minRegionStartSupport <chr>,
#> #   minRegionEndSupport <chr>, minRegionMethod <chr>,
#> #   minMinorAlleleCopyNumber <dbl>
…
