Read PURPLE Purity file — purple_purity_read • gpgr
…
    x
Path to the purple.purity.tsv file.

    Value

    The input file as a tibble and a summarised tibble with a
description of each metric.

    Examples

x <- system.file("extdata/purple/purple.purity.tsv", package = "gpgr")
(p <- purple_purity_read(x))
#> $raw
#> # A tibble: 24 × 2
#>    column               value 
#>    <chr>                <chr> 
#>  1 purity               0.75  
#>  2 normFactor           1.05  
#>  3 score                0.26  
#>  4 diploidProportion    0.86  
#>  5 ploidy               1.87  
#>  6 gender               MALE  
#>  7 status               NORMAL
#>  8 polyclonalProportion 0     
#>  9 minPurity            0.71  
#> 10 maxPurity            0.78  
#> # … with 14 more rows
…
