Read SV TSV — read_sv_tsv • gpgr
…
    Arguments

      x
      Path to manta.tsv output by umccrise.

    Value

    A tibble corresponding to the input TSV file.

    Examples

x <- system.file("extdata/umccrise/sv/manta.tsv", package = "gpgr")
(sv <- read_sv_tsv(x))

#> # A tibble: 58 x 22
#>    caller sample chrom  start    end svtype split_read_supp… paired_support_…
#>    <chr>  <chr>  <chr>  <int>  <int> <chr>  <chr>            <chr>           
#>  1 manta  sampl… chr1  3.66e6 6.61e6 DEL    73,27            NA              
#>  2 manta  sampl… chr1  2.44e8 2.44e8 DEL    86,34            NA              
#>  3 manta  sampl… chr2  5.15e7 5.17e7 DEL    79,36            NA              
#>  4 manta  sampl… chr3  1.43e8 1.43e8 DEL    82,18            NA              
#>  5 manta  sampl… chr4  5.02e7 5.12e7 DEL    NA               NA              
#>  6 manta  sampl… chr4  1.08e8 1.08e8 DEL    87,39            NA              
#>  7 manta  sampl… chr4  1.29e8 1.30e8 DEL    92,33            NA              
#>  8 manta  sampl… chr6  2.99e7 3.03e7 DEL    53,35            NA              
#>  9 manta  sampl… chr6  3.09e7 3.17e7 DEL    76,29            NA              
#> 10 manta  sampl… chr6  6.98e7 6.98e7 DUP    133,25           NA              
#> # … with 48 more rows, and 14 more variables: paired_support_PR <chr>,
#> #   AF_BPI <chr>, somaticscore <int>, tier <chr>, annotation <chr>,
#> #   AF_PURPLE <chr>, CN_PURPLE <chr>, CN_change_PURPLE <chr>,
#> #   Ploidy_PURPLE <dbl>, PURPLE_status <chr>, START_BPI <int>, END_BPI <int>,
#> #   ID <chr>, MATEID <chr>
…
