Read SV TSV — umccrise_read_sv_tsv • gpgr
…
    Arguments

    x
Path to manta.tsv output by umccrise.

    Value

A tibble corresponding to the input TSV file.

    Examples

x <- system.file("extdata/umccrise/sv/manta.tsv", package = "gpgr")
(sv <- umccrise_read_sv_tsv(x)$data)
#> # A tibble: 58 × 23
#>    caller sample  chrom     start      end svtype split…¹ paire…² paire…³ AF_BPI
#>    <chr>  <chr>   <chr>     <int>    <int> <chr>  <chr>   <chr>   <chr>   <chr> 
#>  1 manta  sampleA chr1    3660718   6.61e6 DEL    73,27   NA      135,68  0.363…
#>  2 manta  sampleA chr1  243760053   2.44e8 DEL    86,34   NA      136,66  0.351…
#>  3 manta  sampleA chr2   51465287   5.17e7 DEL    79,36   NA      107,76  0.377…
#>  4 manta  sampleA chr3  143168614   1.43e8 DEL    82,18   NA      116,69  0.400…
#>  5 manta  sampleA chr4   50234822   5.12e7 DEL    NA      NA      21,7    0.054…
#>  6 manta  sampleA chr4  108131468   1.08e8 DEL    87,39   NA      115,71  0.386…
#>  7 manta  sampleA chr4  128687211   1.30e8 DEL    92,33   NA      137,69  0.370…
#>  8 manta  sampleA chr6   29862419   3.03e7 DEL    53,35   NA      106,74  0.453…
#>  9 manta  sampleA chr6   30906388   3.17e7 DEL    76,29   NA      111,63  0.349…
#> 10 manta  sampleA chr6   69755561   6.98e7 DUP    133,25  NA      193,75  0.259…
#> # … with 48 more rows, 13 more variables: somaticscore <int>, tier <chr>,
#> #   annotation <chr>, AF_PURPLE <chr>, CN_PURPLE <chr>, CN_change_PURPLE <chr>,
#> #   Ploidy_PURPLE <dbl>, PURPLE_status <chr>, START_BPI <int>, END_BPI <int>,
#> #   ID <chr>, MATEID <chr>, ALT <chr>, and abbreviated variable names
#> #   ¹​split_read_support, ²​paired_support_PE, ³​paired_support_PR
…
