MutationalPatterns • gpgr
…
#>  3     3 Sig1               749    0.13
#>  4     4 Sig13              402    0.07
#>  5     5 Sig2               223    0.04
#>  6     6 Sig6               196    0.03
#>  7     7 Sig7               174    0.03
#>  8     8 Sig9               161    0.03
#>  9     9 Sig26              124    0.02
#> 10    10 Sig16               74    0.01
#> 11    11 Sig22               72    0.01
#> 12    12 Sig25               65    0.01
#> 13    13 Sig15               55    0.01
#> 14    14 Sig17               51    0.01
#> 15    15 Sig27                3    0
sigs_snv_2020
#> # A tibble: 33 x 4
#>     Rank Signature Contribution RelFreq
#>    <int> <chr>            <dbl>   <dbl>
#>  1     1 SBS8              1224    0.21
#>  2     2 SBS39              868    0.15
#>  3     3 SBS40              761    0.13
#>  4     4 SBS1               448    0.08
#>  5     5 SBS13              389    0.07
#>  6     6 SBS44              267    0.05
#>  7     7 SBS7a              229    0.04
#>  8     8 SBS25              208    0.04
#>  9     9 SBS3               177    0.03
#> 10    10 SBS5               172    0.03
#> # … with 23 more rows
…
